 __      __ ____________ ____________ ________
|  |    |  |_____   ____|_____   ____|   _____|
|  |____|  |    |  |         |  |    |  |_____
|   ____   |    |  |         |  |    |  ______|
|  |    |  |    |  |         |  |    |  |
|__|    |__|    |__|         |__|    |__|
        ____     _________   _________
       |    |   |   ______| |   ______|
      |  __  |  |  |        |  |
      | |__| |  |  |        |  |
     |   __   | |  |______  |  |______
     |__|  |__| |_________| |_________|

 ______ _____ _     _ _____ ______   __ ______ ______ ______
|  ____|  ___| \   | |  ___|  __  | |  |___  _|      |  __  |
| | ___| |___|   \ | | |___| |__| || __ | | | |  __  | |__| |
| ||_  |  ___|  \    |  ___|  __ | ||__|| | | | |__| |  __ |
| |__| | |___| | \   | |___| |  \ \| __  || | |      | |  \ \
|______|_____|_|  \|_|_____|_|   \|_|  |_||_| |______|_|   \_\
